<svg xmlns="http://www.w3.org/2000/svg" width="106" height="88" viewBox="0 0 106 88">
    <path d="M90.34.69l14.01 11.74c.84.71.99 2.03.27 2.89L44.43 87.04c-.48.57-1.14.81-1.78.73-.45-.02-.89-.19-1.26-.5L1.74 54c-.89-.73-1.04-2.07-.31-2.94l11.71-13.95c.71-.85 2.06-.96 2.96-.21l24.15 20.27L87.44.92c.78-.92 2.03-.97 2.9-.23z" fill="#111"/>
</svg>
