<svg xmlns="http://www.w3.org/2000/svg" width="69" height="65" viewBox="0 0 69 65">
    <clipPath id="a">
        <path d="M28.71-.01H69l-.1 31.15v5.63c0 15.54-12.85 28.14-28.71 28.14H28.71L0 65.01V28.14C0 12.59 12.85-.01 28.71-.01z"/>
    </clipPath>
    <clipPath id="b">
        <path d="M35.13.9h-13.2c-.9 0-1.25.4-1.4.76-.31.7.25 1.36.4 1.56l3.12 3.22-1.36 1.36c-1.26 1.26-2.57 2.57-3.83 3.82-1.11 1.11-1.11 2.12-.05 3.22 1.06 1.06 2.12 2.17 3.17 3.22l.96.91c.15.15.35.35.55.5.36.25.76.4 1.16.4.4 0 .81-.15 1.11-.4.2-.15.4-.35.6-.55l5.14-5.14 3.13 3.07c.15.15.6.5 1.15.5.46 0 1.21-.3 1.21-1.5V2.82c.05-1.26-.9-1.92-1.86-1.92zM15.94 19.87l-.96-.96c-.15-.15-.35-.35-.56-.5-.7-.5-1.56-.5-2.26 0-.2.15-.4.35-.61.56-1.26 1.25-2.46 2.46-3.72 3.72L6.42 24.1l-3.13-3.08c-.15-.14-.6-.5-1.15-.5-.46 0-1.21.3-1.21 1.51v13.03c0 1.26.96 1.91 1.91 1.91h13.2c.9 0 1.26-.4 1.41-.75.3-.7-.26-1.36-.4-1.56l-3.13-3.22 1.46-1.46c1.26-1.26 2.47-2.46 3.73-3.72 1.11-1.11 1.11-2.12.05-3.22-1.11-1.06-2.17-2.11-3.22-3.17z"/>
    </clipPath>
    <path d="M28.71-.01H69l-.1 31.15v5.63c0 15.54-12.85 28.14-28.71 28.14H28.71L0 65.01V28.14C0 12.59 12.85-.01 28.71-.01z" fill="none" stroke="#FF4D19" stroke-width="2" clip-path="url(#a)"/>
    <path d="M50.13 14.9h-13.2c-.9 0-1.25.4-1.4.76-.31.7.25 1.36.4 1.56l3.12 3.22-1.36 1.36c-1.26 1.26-2.57 2.57-3.83 3.82-1.11 1.11-1.11 2.12-.05 3.22 1.06 1.06 2.12 2.17 3.17 3.22l.96.91c.15.15.35.35.55.5.36.25.76.4 1.16.4.4 0 .81-.15 1.11-.4.2-.15.4-.35.6-.55l5.14-5.14 3.13 3.07c.15.15.6.5 1.15.5.46 0 1.21-.3 1.21-1.5V16.82c.05-1.26-.9-1.92-1.86-1.92zM30.94 33.87l-.96-.96c-.15-.15-.35-.35-.56-.5-.7-.5-1.56-.5-2.26 0-.2.15-.4.35-.61.56-1.26 1.25-2.46 2.46-3.72 3.72l-1.41 1.41-3.13-3.08c-.15-.14-.6-.5-1.15-.5-.46 0-1.21.3-1.21 1.51v13.03c0 1.26.96 1.91 1.91 1.91h13.2c.9 0 1.26-.4 1.41-.75.3-.7-.26-1.36-.4-1.56l-3.13-3.22 1.46-1.46c1.26-1.26 2.47-2.46 3.73-3.72 1.11-1.11 1.11-2.12.05-3.22-1.11-1.06-2.17-2.11-3.22-3.17z" fill="none" stroke="#FFF" stroke-width="2" clip-path="url(#b)"/>
</svg>
