<svg xmlns="http://www.w3.org/2000/svg" width="88" height="88" viewBox="0 0 88 88">
    <path d="M44 88C19.74 88 0 68.26 0 44S19.74 0 44 0s44 19.74 44 44-19.74 44-44 44zm0-85.07C21.36 2.93 2.93 21.36 2.93 44S21.36 85.07 44 85.07 85.07 66.64 85.07 44 66.64 2.93 44 2.93zm22.83 42.28l-32.27 22c-.25.17-.54.26-.83.26-.23 0-.47-.06-.68-.17-.48-.26-.78-.76-.78-1.3V22c0-.54.3-1.04.78-1.3.48-.25 1.06-.22 1.51.09l32.27 22c.4.27.64.72.64 1.21s-.24.94-.64 1.21zM35.2 24.78v38.44L63.4 44 35.2 24.78z" fill="#FFF"/>
</svg>
